// Jest Snapshot v1, https://goo.gl/fbAQLP

exports[`MainContent should render content for the large screen 1`] = `
<main
  className="MainContent undefined"
>
  <div
    className="MainContent-wrapper"
  >
    <div
      className="content"
    >
      <div
        className="champions"
      >
        <h2>
          List of F1 champions
          
          
        </h2>
        <div
          className="DataGrid-wrapper"
        >
          <table
            className="DataGrid"
          >
            <thead>
              <tr>
                <th>
                  #
                </th>
                <th>
                  Season
                </th>
                <th>
                  Full Name
                </th>
                <th>
                  Nationality
                </th>
                <th>
                  Date of birth
                </th>
              </tr>
            </thead>
            <tbody />
          </table>
        </div>
      </div>
      
    </div>
  </div>
</main>
`;

exports[`MainContent should render content for the small screen 1`] = `
<main
  className="MainContent undefined"
>
  <div
    className="MainContent-wrapper"
  >
    <div
      className="content"
    >
      <div
        className="champions"
      >
        <h2>
          List of F1 champions
          
          
        </h2>
        <div
          className="ListView-wrapper"
        >
          <ul
            className="ListView"
          />
        </div>
      </div>
      
    </div>
  </div>
</main>
`;
