// Jest Snapshot v1, https://goo.gl/fbAQLP

exports[`should render content 1`] = `
<div
  className="Loader"
>
  <div
    className="rect rect1"
  />
  <div
    className="rect rect2"
  />
  <div
    className="rect rect3"
  />
  <div
    className="rect rect4"
  />
  <div
    className="rect rect5"
  />
</div>
`;
